%YAML 1.1
%TAG !u! tag:unity3d.com,2011:
--- !u!78 &1
TagManager:
  serializedVersion: 2
  tags:
  - DialogueBox
  - DialogueCanvas
  - PNJ
  - Waypoint
  - WaitingZone
  - GoldUI
  - SteelUI
  - IronUI
  - BronzeUI
  - GoldOreUI
  - DiamondUI
  layers:
  - Default
  - TransparentFX
  - Ignore Raycast
  - EpeeJoueur
  - Water
  - UI
  - Cursors
  - Outlined
  - 
  - 
  - 
  - 
  - 
  - 
  - 
  - 
  - 
  - 
  - 
  - 
  - 
  - 
  - 
  - 
  - 
  - 
  - 
  - 
  - 
  - 
  - 
  - 
  m_SortingLayers:
  - name: Default
    uniqueID: 0
    locked: 0
