%YAML 1.1
%TAG !u! tag:unity3d.com,2011:
--- !u!64 &1746664831
MeshCollider:
  m_ObjectHideFlags: 0
  m_CorrespondingSourceObject: {fileID: 0}
  m_PrefabInstance: {fileID: 0}
  m_PrefabAsset: {fileID: 0}
  m_GameObject: {fileID: 3961025182755949670}
  m_Material: {fileID: 0}
  m_IsTrigger: 0
  m_Enabled: 1
  serializedVersion: 4
  m_Convex: 1
  m_CookingOptions: 30
  m_Mesh: {fileID: -5495902117074765545, guid: b01c99df86361304cbb1c7334ef5e620, type: 3}
--- !u!114 &9036687243556313199
MonoBehaviour:
  m_ObjectHideFlags: 0
  m_CorrespondingSourceObject: {fileID: 0}
  m_PrefabInstance: {fileID: 0}
  m_PrefabAsset: {fileID: 0}
  m_GameObject: {fileID: 3961025182755949670}
  m_Enabled: 1
  m_EditorHideFlags: 0
  m_Script: {fileID: 11500000, guid: 27e64a0409c7c3641aea9302f0bf9027, type: 3}
  m_Name: 
  m_EditorClassIdentifier: 
  _baseColor: {r: 0.9056604, g: 0.9056604, b: 0.9056604, a: 0}
--- !u!54 &1746664832
Rigidbody:
  m_ObjectHideFlags: 0
  m_CorrespondingSourceObject: {fileID: 0}
  m_PrefabInstance: {fileID: 0}
  m_PrefabAsset: {fileID: 0}
  m_GameObject: {fileID: 3961025182755949670}
  serializedVersion: 2
  m_Mass: 1
  m_Drag: 0
  m_AngularDrag: 0.05
  m_UseGravity: 1
  m_IsKinematic: 0
  m_Interpolate: 0
  m_Constraints: 0
  m_CollisionDetection: 0
--- !u!1001 &4195396326961623351
PrefabInstance:
  m_ObjectHideFlags: 0
  serializedVersion: 2
  m_Modification:
    m_TransformParent: {fileID: 0}
    m_Modifications:
    - target: {fileID: -8679921383154817045, guid: b01c99df86361304cbb1c7334ef5e620, type: 3}
      propertyPath: m_RootOrder
      value: 0
      objectReference: {fileID: 0}
    - target: {fileID: -8679921383154817045, guid: b01c99df86361304cbb1c7334ef5e620, type: 3}
      propertyPath: m_LocalScale.x
      value: 1
      objectReference: {fileID: 0}
    - target: {fileID: -8679921383154817045, guid: b01c99df86361304cbb1c7334ef5e620, type: 3}
      propertyPath: m_LocalScale.y
      value: 1
      objectReference: {fileID: 0}
    - target: {fileID: -8679921383154817045, guid: b01c99df86361304cbb1c7334ef5e620, type: 3}
      propertyPath: m_LocalScale.z
      value: 2
      objectReference: {fileID: 0}
    - target: {fileID: -8679921383154817045, guid: b01c99df86361304cbb1c7334ef5e620, type: 3}
      propertyPath: m_LocalPosition.x
      value: 0
      objectReference: {fileID: 0}
    - target: {fileID: -8679921383154817045, guid: b01c99df86361304cbb1c7334ef5e620, type: 3}
      propertyPath: m_LocalPosition.y
      value: 2.163
      objectReference: {fileID: 0}
    - target: {fileID: -8679921383154817045, guid: b01c99df86361304cbb1c7334ef5e620, type: 3}
      propertyPath: m_LocalPosition.z
      value: 0
      objectReference: {fileID: 0}
    - target: {fileID: -8679921383154817045, guid: b01c99df86361304cbb1c7334ef5e620, type: 3}
      propertyPath: m_LocalRotation.w
      value: 1
      objectReference: {fileID: 0}
    - target: {fileID: -8679921383154817045, guid: b01c99df86361304cbb1c7334ef5e620, type: 3}
      propertyPath: m_LocalRotation.x
      value: 0
      objectReference: {fileID: 0}
    - target: {fileID: -8679921383154817045, guid: b01c99df86361304cbb1c7334ef5e620, type: 3}
      propertyPath: m_LocalRotation.y
      value: 0
      objectReference: {fileID: 0}
    - target: {fileID: -8679921383154817045, guid: b01c99df86361304cbb1c7334ef5e620, type: 3}
      propertyPath: m_LocalRotation.z
      value: 0
      objectReference: {fileID: 0}
    - target: {fileID: -8679921383154817045, guid: b01c99df86361304cbb1c7334ef5e620, type: 3}
      propertyPath: m_LocalEulerAnglesHint.x
      value: 0
      objectReference: {fileID: 0}
    - target: {fileID: -8679921383154817045, guid: b01c99df86361304cbb1c7334ef5e620, type: 3}
      propertyPath: m_LocalEulerAnglesHint.y
      value: 0
      objectReference: {fileID: 0}
    - target: {fileID: -8679921383154817045, guid: b01c99df86361304cbb1c7334ef5e620, type: 3}
      propertyPath: m_LocalEulerAnglesHint.z
      value: 0
      objectReference: {fileID: 0}
    - target: {fileID: -7511558181221131132, guid: b01c99df86361304cbb1c7334ef5e620, type: 3}
      propertyPath: m_Materials.Array.data[0]
      value: 
      objectReference: {fileID: 2100000, guid: 59e4b6ffe2dabce4aac020029c04a800, type: 2}
    - target: {fileID: 919132149155446097, guid: b01c99df86361304cbb1c7334ef5e620, type: 3}
      propertyPath: m_Name
      value: HighPolyCube
      objectReference: {fileID: 0}
    m_RemovedComponents: []
  m_SourcePrefab: {fileID: 100100000, guid: b01c99df86361304cbb1c7334ef5e620, type: 3}
--- !u!1 &3961025182755949670 stripped
GameObject:
  m_CorrespondingSourceObject: {fileID: 919132149155446097, guid: b01c99df86361304cbb1c7334ef5e620, type: 3}
  m_PrefabInstance: {fileID: 4195396326961623351}
  m_PrefabAsset: {fileID: 0}
